router.vcd
$date
	Thu Mar  9 14:55:23 2023
$end
$version
	Icarus Verilog
$end
$timescale
	1us
$end
$scope module routertb $end
$var wire 32 ! west_out [31:0] $end
$var wire 32 " south_out [31:0] $end
$var wire 1 # pop_west $end
$var wire 1 $ pop_south $end
$var wire 1 % pop_north $end
$var wire 1 & pop_local $end
$var wire 1 ' pop_east $end
$var wire 32 ( north_out [31:0] $end
$var wire 32 ) local_out [31:0] $end
$var wire 32 * east_out [31:0] $end
$var wire 3 + count_out_west [2:0] $end
$var wire 3 , count_out_south [2:0] $end
$var wire 3 - count_out_north [2:0] $end
$var wire 3 . count_out_local [2:0] $end
$var wire 3 / count_out_east [2:0] $end
$var reg 1 0 clk $end
$var reg 3 1 count_in_east [2:0] $end
$var reg 3 2 count_in_local [2:0] $end
$var reg 3 3 count_in_north [2:0] $end
$var reg 3 4 count_in_south [2:0] $end
$var reg 3 5 count_in_west [2:0] $end
$var reg 32 6 east_in [31:0] $end
$var reg 1 7 enable $end
$var reg 32 8 local_in [31:0] $end
$var reg 32 9 north_in [31:0] $end
$var reg 1 : push_east $end
$var reg 1 ; push_local $end
$var reg 1 < push_north $end
$var reg 1 = push_south $end
$var reg 1 > push_west $end
$var reg 1 ? reset $end
$var reg 2 @ routeridx [1:0] $end
$var reg 2 A routeridy [1:0] $end
$var reg 32 B south_in [31:0] $end
$var reg 32 C west_in [31:0] $end
$scope module u6 $end
$var wire 1 0 clk $end
$var wire 3 D count_in_east [2:0] $end
$var wire 3 E count_in_local [2:0] $end
$var wire 3 F count_in_north [2:0] $end
$var wire 3 G count_in_south [2:0] $end
$var wire 3 H count_in_west [2:0] $end
$var wire 32 I east_in [31:0] $end
$var wire 32 J east_out [31:0] $end
$var wire 1 7 enable $end
$var wire 32 K local_in [31:0] $end
$var wire 32 L local_out [31:0] $end
$var wire 32 M north_in [31:0] $end
$var wire 32 N north_out [31:0] $end
$var wire 1 : push_east $end
$var wire 1 ; push_local $end
$var wire 1 < push_north $end
$var wire 1 = push_south $end
$var wire 1 > push_west $end
$var wire 1 ? reset $end
$var wire 2 O routeridx [1:0] $end
$var wire 2 P routeridy [1:0] $end
$var wire 32 Q south_in [31:0] $end
$var wire 32 R south_out [31:0] $end
$var wire 32 S west_in [31:0] $end
$var wire 32 T west_out [31:0] $end
$var wire 32 U west_reardata [31:0] $end
$var wire 32 V west_out_intermediate [31:0] $end
$var wire 32 W west_frontdata [31:0] $end
$var wire 32 X south_reardata [31:0] $end
$var wire 32 Y south_out_intermediate [31:0] $end
$var wire 32 Z south_frontdata [31:0] $end
$var wire 32 [ north_reardata [31:0] $end
$var wire 32 \ north_out_intermediate [31:0] $end
$var wire 32 ] north_frontdata [31:0] $end
$var wire 32 ^ local_reardata [31:0] $end
$var wire 32 _ local_out_intermediate [31:0] $end
$var wire 32 ` local_frontdata [31:0] $end
$var wire 32 a east_reardata [31:0] $end
$var wire 32 b east_out_intermediate [31:0] $end
$var wire 32 c east_frontdata [31:0] $end
$var wire 3 d count_out_west [2:0] $end
$var wire 3 e count_out_south [2:0] $end
$var wire 3 f count_out_north [2:0] $end
$var wire 3 g count_out_local [2:0] $end
$var wire 3 h count_out_east [2:0] $end
$var reg 32 i muxoutput1 [31:0] $end
$var reg 32 j muxoutput2 [31:0] $end
$var reg 32 k muxoutput3 [31:0] $end
$var reg 32 l muxoutput4 [31:0] $end
$var reg 32 m muxoutput5 [31:0] $end
$var reg 32 n nochannel [31:0] $end
$var reg 3 o nstate1 [2:0] $end
$var reg 3 p nstate2 [2:0] $end
$var reg 3 q nstate3 [2:0] $end
$var reg 3 r nstate4 [2:0] $end
$var reg 3 s nstate5 [2:0] $end
$var reg 1 ' pop_east $end
$var reg 1 t pop_east1 $end
$var reg 1 & pop_local $end
$var reg 1 u pop_local1 $end
$var reg 1 % pop_north $end
$var reg 1 v pop_north1 $end
$var reg 1 $ pop_south $end
$var reg 1 w pop_south1 $end
$var reg 1 # pop_west $end
$var reg 1 x pop_west1 $end
$var reg 3 y x1 [2:0] $end
$var reg 3 z x2 [2:0] $end
$var reg 3 { x3 [2:0] $end
$var reg 3 | x4 [2:0] $end
$var reg 3 } x5 [2:0] $end
$scope module u1 $end
$var wire 1 0 clk $end
$var wire 32 ~ data_in [31:0] $end
$var wire 1 7 enable $end
$var wire 1 v pop $end
$var wire 1 < push $end
$var wire 1 ? reset $end
$var reg 3 !" count [2:0] $end
$var reg 4 "" count1 [3:0] $end
$var reg 32 #" data_out [31:0] $end
$var reg 32 $" frontdata [31:0] $end
$var reg 3 %" frontptr [2:0] $end
$var reg 32 &" reardata [31:0] $end
$var reg 3 '" rearptr [2:0] $end
$upscope $end
$scope module u2 $end
$var wire 1 0 clk $end
$var wire 32 (" data_in [31:0] $end
$var wire 1 7 enable $end
$var wire 1 w pop $end
$var wire 1 = push $end
$var wire 1 ? reset $end
$var reg 3 )" count [2:0] $end
$var reg 4 *" count1 [3:0] $end
$var reg 32 +" data_out [31:0] $end
$var reg 32 ," frontdata [31:0] $end
$var reg 3 -" frontptr [2:0] $end
$var reg 32 ." reardata [31:0] $end
$var reg 3 /" rearptr [2:0] $end
$upscope $end
$scope module u3 $end
$var wire 1 0 clk $end
$var wire 32 0" data_in [31:0] $end
$var wire 1 7 enable $end
$var wire 1 t pop $end
$var wire 1 : push $end
$var wire 1 ? reset $end
$var reg 3 1" count [2:0] $end
$var reg 4 2" count1 [3:0] $end
$var reg 32 3" data_out [31:0] $end
$var reg 32 4" frontdata [31:0] $end
$var reg 3 5" frontptr [2:0] $end
$var reg 32 6" reardata [31:0] $end
$var reg 3 7" rearptr [2:0] $end
$upscope $end
$scope module u4 $end
$var wire 1 0 clk $end
$var wire 32 8" data_in [31:0] $end
$var wire 1 7 enable $end
$var wire 1 x pop $end
$var wire 1 > push $end
$var wire 1 ? reset $end
$var reg 3 9" count [2:0] $end
$var reg 4 :" count1 [3:0] $end
$var reg 32 ;" data_out [31:0] $end
$var reg 32 <" frontdata [31:0] $end
$var reg 3 =" frontptr [2:0] $end
$var reg 32 >" reardata [31:0] $end
$var reg 3 ?" rearptr [2:0] $end
$upscope $end
$scope module u5 $end
$var wire 1 0 clk $end
$var wire 32 @" data_in [31:0] $end
$var wire 1 7 enable $end
$var wire 1 u pop $end
$var wire 1 ; push $end
$var wire 1 ? reset $end
$var reg 3 A" count [2:0] $end
$var reg 4 B" count1 [3:0] $end
$var reg 32 C" data_out [31:0] $end
$var reg 32 D" frontdata [31:0] $end
$var reg 3 E" frontptr [2:0] $end
$var reg 32 F" reardata [31:0] $end
$var reg 3 G" rearptr [2:0] $end
$upscope $end
$upscope $end
$upscope $end
$enddefinitions $end
#0
$dumpvars
b0 G"
bx F"
b0 E"
bx D"
bx C"
b0 B"
bx A"
b0 @"
b0 ?"
bx >"
b0 ="
bx <"
bx ;"
b0 :"
bx 9"
b0 8"
b0 7"
bx 6"
b0 5"
bx 4"
bx 3"
b0 2"
bx 1"
b0 0"
b0 /"
bx ."
b0 -"
bx ,"
bx +"
b0 *"
bx )"
b0 ("
b0 '"
bx &"
b0 %"
bx $"
bx #"
b0 ""
bx !"
b0 ~
b0 }
b0 |
b0 {
b0 z
b0 y
0x
0w
0v
0u
0t
b0 s
b0 r
b0 q
b0 p
b0 o
b1 n
b1 m
b1 l
b1 k
b1 j
b1 i
bx h
bx g
bx f
bx e
bx d
bx c
bx b
bx a
bx `
bx _
bx ^
bx ]
bx \
bx [
bx Z
bx Y
bx X
bx W
bx V
bx U
b1 T
b0 S
b1 R
b0 Q
b0 P
b0 O
b1 N
b0 M
b1 L
b0 K
b1 J
b0 I
b0 H
b0 G
b0 F
b0 E
b0 D
b0 C
b0 B
b0 A
b0 @
1?
x>
x=
x<
x;
x:
b0 9
b0 8
17
b0 6
b0 5
b0 4
b0 3
b0 2
b0 1
00
bx /
bx .
bx -
bx ,
bx +
b1 *
b1 )
b1 (
0'
x&
0%
0$
0#
b1 "
b1 !
$end
#10
b0 ]
b0 $"
b0 [
b0 &"
b0 -
b0 f
b0 !"
b0 Z
b0 ,"
b0 X
b0 ."
b0 ,
b0 e
b0 )"
b0 c
b0 4"
b0 a
b0 6"
b0 /
b0 h
b0 1"
b0 W
b0 <"
b0 U
b0 >"
b0 +
b0 d
b0 9"
b0 `
b0 D"
b0 ^
b0 F"
b0 .
b0 g
b0 A"
10
#15
b1000011000000000000000000100001 8
b1000011000000000000000000100001 K
b1000011000000000000000000100001 @"
b1000000001100000000000000011001 C
b1000000001100000000000000011001 S
b1000000001100000000000000011001 8"
b1001100000000000000000000010001 6
b1001100000000000000000000010001 I
b1001100000000000000000000010001 0"
b1000000110000000000000000000001 9
b1000000110000000000000000000001 M
b1000000110000000000000000000001 ~
b1000000000000000000000000001001 B
b1000000000000000000000000001001 Q
b1000000000000000000000000001001 ("
1;
1>
1:
1=
1<
0?
#20
00
#30
b1000011000000000000000000100001 `
b1000011000000000000000000100001 D"
b1000011000000000000000000100001 ^
b1000011000000000000000000100001 F"
b1 .
b1 g
b1 A"
b1 B"
b1 G"
b1 E"
b1000000001100000000000000011001 W
b1000000001100000000000000011001 <"
b1000000001100000000000000011001 U
b1000000001100000000000000011001 >"
b1 +
b1 d
b1 9"
b1 :"
b1 ?"
b1 ="
b1001100000000000000000000010001 c
b1001100000000000000000000010001 4"
b1001100000000000000000000010001 a
b1001100000000000000000000010001 6"
b1 /
b1 h
b1 1"
b1 2"
b1 7"
b1 5"
b1000000000000000000000000001001 Z
b1000000000000000000000000001001 ,"
b1000000000000000000000000001001 X
b1000000000000000000000000001001 ."
b1 ,
b1 e
b1 )"
b1 *"
b1 /"
b1 -"
b1000000110000000000000000000001 ]
b1000000110000000000000000000001 $"
b1000000110000000000000000000001 [
b1000000110000000000000000000001 &"
b1 -
b1 f
b1 !"
b1 ""
b1 '"
b1 %"
10
#35
b10001000100010001000100000100010 8
b10001000100010001000100000100010 K
b10001000100010001000100000100010 @"
b10001000100010001000100000011010 C
b10001000100010001000100000011010 S
b10001000100010001000100000011010 8"
b10001000100010001000100000010010 6
b10001000100010001000100000010010 I
b10001000100010001000100000010010 0"
b10001000100010001000100000000010 9
b10001000100010001000100000000010 M
b10001000100010001000100000000010 ~
b10001000100010001000100000001010 B
b10001000100010001000100000001010 Q
b10001000100010001000100000001010 ("
#40
00
#50
b10001000100010001000100000000010 [
b10001000100010001000100000000010 &"
b10 -
b10 f
b10 !"
b10 ""
b10 '"
b10001000100010001000100000001010 X
b10001000100010001000100000001010 ."
b10 ,
b10 e
b10 )"
b10 *"
b10 /"
b10001000100010001000100000010010 a
b10001000100010001000100000010010 6"
b10 /
b10 h
b10 1"
b10 2"
b10 7"
b10001000100010001000100000011010 U
b10001000100010001000100000011010 >"
b10 +
b10 d
b10 9"
b10 :"
b10 ?"
b10001000100010001000100000100010 ^
b10001000100010001000100000100010 F"
b10 .
b10 g
b10 A"
b10 B"
b10 G"
b1 o
b1 p
b1 q
b1 r
b1 s
10
#55
b10001000100010001000100000100011 8
b10001000100010001000100000100011 K
b10001000100010001000100000100011 @"
b10001000100010001000100000011011 C
b10001000100010001000100000011011 S
b10001000100010001000100000011011 8"
b10001000100010001000100000010011 6
b10001000100010001000100000010011 I
b10001000100010001000100000010011 0"
b10001000100010001000100000000011 9
b10001000100010001000100000000011 M
b10001000100010001000100000000011 ~
b10001000100010001000100000001011 B
b10001000100010001000100000001011 Q
b10001000100010001000100000001011 ("
#60
00
#70
b1000000110000000000000000000001 *
b1000000110000000000000000000001 J
b1000000110000000000000000000001 k
1'
b10001000100010001000100000100011 ^
b10001000100010001000100000100011 F"
b11 .
b11 g
b11 A"
b11 B"
b11 G"
b10001000100010001000100000011011 U
b10001000100010001000100000011011 >"
b11 +
b11 d
b11 9"
b11 :"
b11 ?"
b10001000100010001000100000010011 a
b10001000100010001000100000010011 6"
b11 /
b11 h
b11 1"
b11 2"
b11 7"
b10001000100010001000100000001011 X
b10001000100010001000100000001011 ."
b11 ,
b11 e
b11 )"
b11 *"
b11 /"
b10001000100010001000100000000010 ]
b10001000100010001000100000000010 $"
b10001000100010001000100000000011 [
b10001000100010001000100000000011 &"
b10 %"
b1000000110000000000000000000001 \
b1000000110000000000000000000001 #"
b10 ""
b11 '"
1v
b10 o
b10 p
b1 {
b10 r
b10 s
10
#75
b11000000001100000000000000100100 8
b11000000001100000000000000100100 K
b11000000001100000000000000100100 @"
b11000000001100000000000000011100 C
b11000000001100000000000000011100 S
b11000000001100000000000000011100 8"
b11000000001100000000000000010100 6
b11000000001100000000000000010100 I
b11000000001100000000000000010100 0"
b11000000001100000000000000000100 9
b11000000001100000000000000000100 M
b11000000001100000000000000000100 ~
b11000000000000000000000000001100 B
b11000000000000000000000000001100 Q
b11000000000000000000000000001100 ("
#80
00
#90
b10001000100010001000100000000010 *
b10001000100010001000100000000010 J
b10001000100010001000100000000010 k
b1000000000000000000000000001001 )
b1000000000000000000000000001001 L
b1000000000000000000000000001001 m
b10001000100010001000100000000011 ]
b10001000100010001000100000000011 $"
b11000000001100000000000000000100 [
b11000000001100000000000000000100 &"
b11 %"
b10001000100010001000100000000010 \
b10001000100010001000100000000010 #"
b10 ""
b0 '"
b10001000100010001000100000001010 Z
b10001000100010001000100000001010 ,"
b11000000000000000000000000001100 X
b11000000000000000000000000001100 ."
b10 -"
b1000000000000000000000000001001 Y
b1000000000000000000000000001001 +"
b11 *"
b0 /"
b11000000001100000000000000010100 a
b11000000001100000000000000010100 6"
b100 /
b100 h
b100 1"
b100 2"
b0 7"
b11000000001100000000000000011100 U
b11000000001100000000000000011100 >"
b100 +
b100 d
b100 9"
b100 :"
b0 ?"
b11000000001100000000000000100100 ^
b11000000001100000000000000100100 F"
b100 .
b100 g
b100 A"
b100 B"
b0 G"
1w
b11 o
b11 p
b11 r
b10 }
10
#95
0;
0>
0:
0=
0<
#100
00
#110
b10001000100010001000100000000011 *
b10001000100010001000100000000011 J
b10001000100010001000100000000011 k
b10001000100010001000100000001010 )
b10001000100010001000100000001010 L
b10001000100010001000100000001010 m
b10001000100010001000100000001011 Z
b10001000100010001000100000001011 ,"
b10 ,
b10 e
b10 )"
b10 *"
b11 -"
b10001000100010001000100000001010 Y
b10001000100010001000100000001010 +"
b11000000001100000000000000000100 ]
b11000000001100000000000000000100 $"
b1 -
b1 f
b1 !"
b1 ""
b0 %"
b10001000100010001000100000000011 \
b10001000100010001000100000000011 #"
b100 o
b100 p
b100 r
10
#120
00
#130
b11000000001100000000000000000100 *
b11000000001100000000000000000100 J
b11000000001100000000000000000100 k
b10001000100010001000100000001011 )
b10001000100010001000100000001011 L
b10001000100010001000100000001011 m
b1000000001100000000000000011001 (
b1000000001100000000000000011001 N
b1000000001100000000000000011001 i
1%
b0 ]
b0 $"
b0 [
b0 &"
b0 -
b0 f
b0 !"
b0 ""
b11000000001100000000000000000100 \
b11000000001100000000000000000100 #"
b11000000000000000000000000001100 Z
b11000000000000000000000000001100 ,"
b1 ,
b1 e
b1 )"
b1 *"
b0 -"
b10001000100010001000100000001011 Y
b10001000100010001000100000001011 +"
b10001000100010001000100000011010 W
b10001000100010001000100000011010 <"
b11 +
b11 d
b11 9"
b11 :"
b10 ="
b1000000001100000000000000011001 V
b1000000001100000000000000011001 ;"
1x
b100 y
b101 p
b110 q
b101 r
10
#140
00
#150
b10001000100010001000100000011010 (
b10001000100010001000100000011010 N
b10001000100010001000100000011010 i
b11000000000000000000000000001100 )
b11000000000000000000000000001100 L
b11000000000000000000000000001100 m
b1 *
b1 J
b1 k
0'
b10001000100010001000100000011011 W
b10001000100010001000100000011011 <"
b10 +
b10 d
b10 9"
b10 :"
b11 ="
b10001000100010001000100000011010 V
b10001000100010001000100000011010 ;"
b0 Z
b0 ,"
b0 X
b0 ."
b0 ,
b0 e
b0 )"
b0 *"
b11000000000000000000000000001100 Y
b11000000000000000000000000001100 +"
b0 ]
b0 $"
b0 [
b0 &"
0v
b1 p
b10 q
b0 {
b1 r
b110 s
10
#160
00
#170
b10001000100010001000100000011011 (
b10001000100010001000100000011011 N
b10001000100010001000100000011011 i
b1 )
b1 L
b1 m
b0 ]
b0 $"
b0 [
b0 &"
b0 Z
b0 ,"
b0 X
b0 ."
b11000000001100000000000000011100 W
b11000000001100000000000000011100 <"
b1 +
b1 d
b1 9"
b1 :"
b0 ="
b10001000100010001000100000011011 V
b10001000100010001000100000011011 ;"
0w
b10 p
b11 q
b10 r
b11 s
b0 }
10
#180
00
#190
b11000000001100000000000000011100 (
b11000000001100000000000000011100 N
b11000000001100000000000000011100 i
b1001100000000000000000000010001 )
b1001100000000000000000000010001 L
b1001100000000000000000000010001 m
b0 W
b0 <"
b0 U
b0 >"
b0 +
b0 d
b0 9"
b0 :"
b11000000001100000000000000011100 V
b11000000001100000000000000011100 ;"
b10001000100010001000100000010010 c
b10001000100010001000100000010010 4"
b11 /
b11 h
b11 1"
b11 2"
b10 5"
b1001100000000000000000000010001 b
b1001100000000000000000000010001 3"
b0 Z
b0 ,"
b0 X
b0 ."
b0 ]
b0 $"
b0 [
b0 &"
1t
b110 o
b11 p
b100 q
b11 r
b11 }
10
#200
00
#210
b10001000100010001000100000010010 )
b10001000100010001000100000010010 L
b10001000100010001000100000010010 m
b1 (
b1 N
b1 i
0%
b0 ]
b0 $"
b0 [
b0 &"
b0 Z
b0 ,"
b0 X
b0 ."
b10001000100010001000100000010011 c
b10001000100010001000100000010011 4"
b10 /
b10 h
b10 1"
b10 2"
b11 5"
b10001000100010001000100000010010 b
b10001000100010001000100000010010 3"
b0 W
b0 <"
b0 U
b0 >"
0x
b101 o
b0 y
b100 p
b101 q
b100 r
10
#220
00
#230
b10001000100010001000100000010011 )
b10001000100010001000100000010011 L
b10001000100010001000100000010011 m
b0 W
b0 <"
b0 U
b0 >"
b11000000001100000000000000010100 c
b11000000001100000000000000010100 4"
b1 /
b1 h
b1 1"
b1 2"
b0 5"
b10001000100010001000100000010011 b
b10001000100010001000100000010011 3"
b0 Z
b0 ,"
b0 X
b0 ."
b0 ]
b0 $"
b0 [
b0 &"
b1 o
b101 p
b1 q
b101 r
10
#240
00
#250
b11000000001100000000000000010100 )
b11000000001100000000000000010100 L
b11000000001100000000000000010100 m
b0 ]
b0 $"
b0 [
b0 &"
b0 Z
b0 ,"
b0 X
b0 ."
b0 c
b0 4"
b0 a
b0 6"
b0 /
b0 h
b0 1"
b0 2"
b11000000001100000000000000010100 b
b11000000001100000000000000010100 3"
b0 W
b0 <"
b0 U
b0 >"
b10 o
b1 p
b10 q
b1 r
b110 s
10
#260
00
#270
b1 )
b1 L
b1 m
b0 W
b0 <"
b0 U
b0 >"
b0 c
b0 4"
b0 a
b0 6"
b0 Z
b0 ,"
b0 X
b0 ."
b0 ]
b0 $"
b0 [
b0 &"
0t
b11 o
b10 p
b11 q
b10 r
b100 s
b0 }
10
#280
00
#290
b0 ]
b0 $"
b0 [
b0 &"
b0 Z
b0 ,"
b0 X
b0 ."
b0 c
b0 4"
b0 a
b0 6"
b0 W
b0 <"
b0 U
b0 >"
b100 o
b11 p
b100 q
b11 r
b101 s
10
#295
b1000011000000000000000000100101 8
b1000011000000000000000000100101 K
b1000011000000000000000000100101 @"
b1000000001100000000000000011101 C
b1000000001100000000000000011101 S
b1000000001100000000000000011101 8"
b1001100000000000000000000010101 6
b1001100000000000000000000010101 I
b1001100000000000000000000010101 0"
b1000000110000000000000000000101 9
b1000000110000000000000000000101 M
b1000000110000000000000000000101 ~
1;
1>
1:
1=
1<
b1000000000000000000000000001101 B
b1000000000000000000000000001101 Q
b1000000000000000000000000001101 ("
#300
00
#310
b1000011000000000000000000100001 )
b1000011000000000000000000100001 L
b1000011000000000000000000100001 m
b10001000100010001000100000100010 `
b10001000100010001000100000100010 D"
b11 .
b11 g
b11 A"
b11 B"
b10 E"
b1000011000000000000000000100001 _
b1000011000000000000000000100001 C"
b1000000001100000000000000011101 W
b1000000001100000000000000011101 <"
b1000000001100000000000000011101 U
b1000000001100000000000000011101 >"
b1 +
b1 d
b1 9"
b1 :"
b1 ?"
b1 ="
b1001100000000000000000000010101 c
b1001100000000000000000000010101 4"
b1001100000000000000000000010101 a
b1001100000000000000000000010101 6"
b1 /
b1 h
b1 1"
b1 2"
b1 7"
b1 5"
b1000000000000000000000000001101 Z
b1000000000000000000000000001101 ,"
b1000000000000000000000000001101 X
b1000000000000000000000000001101 ."
b1 ,
b1 e
b1 )"
b1 *"
b1 /"
b1 -"
b1000000110000000000000000000101 ]
b1000000110000000000000000000101 $"
b1000000110000000000000000000101 [
b1000000110000000000000000000101 &"
b1 -
b1 f
b1 !"
b1 ""
b1 '"
b1 %"
1u
b101 o
b100 p
b101 q
b100 r
b101 }
10
#315
b10001000100010001000100000100110 8
b10001000100010001000100000100110 K
b10001000100010001000100000100110 @"
b10001000100010001000100000011110 C
b10001000100010001000100000011110 S
b10001000100010001000100000011110 8"
b10001000100010001000100000010110 6
b10001000100010001000100000010110 I
b10001000100010001000100000010110 0"
b10001000100010001000100000000110 9
b10001000100010001000100000000110 M
b10001000100010001000100000000110 ~
b10001000100010001000100000001110 B
b10001000100010001000100000001110 Q
b10001000100010001000100000001110 ("
#320
00
#330
b10001000100010001000100000100010 )
b10001000100010001000100000100010 L
b10001000100010001000100000100010 m
b10001000100010001000100000000110 [
b10001000100010001000100000000110 &"
b10 -
b10 f
b10 !"
b10 ""
b10 '"
b10001000100010001000100000001110 X
b10001000100010001000100000001110 ."
b10 ,
b10 e
b10 )"
b10 *"
b10 /"
b10001000100010001000100000010110 a
b10001000100010001000100000010110 6"
b10 /
b10 h
b10 1"
b10 2"
b10 7"
b10001000100010001000100000011110 U
b10001000100010001000100000011110 >"
b10 +
b10 d
b10 9"
b10 :"
b10 ?"
b10001000100010001000100000100011 `
b10001000100010001000100000100011 D"
b10001000100010001000100000100110 ^
b10001000100010001000100000100110 F"
b11 E"
b10001000100010001000100000100010 _
b10001000100010001000100000100010 C"
b11 B"
b1 G"
b1 o
b101 p
b1 q
b101 r
10
#335
b10001000100010001000100000100111 8
b10001000100010001000100000100111 K
b10001000100010001000100000100111 @"
b10001000100010001000100000011111 C
b10001000100010001000100000011111 S
b10001000100010001000100000011111 8"
b10001000100010001000100000010111 6
b10001000100010001000100000010111 I
b10001000100010001000100000010111 0"
b10001000100010001000100000000111 9
b10001000100010001000100000000111 M
b10001000100010001000100000000111 ~
b10001000100010001000100000001111 B
b10001000100010001000100000001111 Q
b10001000100010001000100000001111 ("
#340
00
#350
b10001000100010001000100000100011 )
b10001000100010001000100000100011 L
b10001000100010001000100000100011 m
b1000000110000000000000000000101 *
b1000000110000000000000000000101 J
b1000000110000000000000000000101 k
1'
b11000000001100000000000000100100 `
b11000000001100000000000000100100 D"
b10001000100010001000100000100111 ^
b10001000100010001000100000100111 F"
b0 E"
b10001000100010001000100000100011 _
b10001000100010001000100000100011 C"
b11 B"
b10 G"
b10001000100010001000100000011111 U
b10001000100010001000100000011111 >"
b11 +
b11 d
b11 9"
b11 :"
b11 ?"
b10001000100010001000100000010111 a
b10001000100010001000100000010111 6"
b11 /
b11 h
b11 1"
b11 2"
b11 7"
b10001000100010001000100000001111 X
b10001000100010001000100000001111 ."
b11 ,
b11 e
b11 )"
b11 *"
b11 /"
b10001000100010001000100000000110 ]
b10001000100010001000100000000110 $"
b10001000100010001000100000000111 [
b10001000100010001000100000000111 &"
b10 %"
b1000000110000000000000000000101 \
b1000000110000000000000000000101 #"
b10 ""
b11 '"
1v
b10 o
b1 p
b1 {
b1 r
10
#355
b11000000001100000000000000101000 8
b11000000001100000000000000101000 K
b11000000001100000000000000101000 @"
b11000000001100000000000000100000 C
b11000000001100000000000000100000 S
b11000000001100000000000000100000 8"
b11000000001100000000000000011000 6
b11000000001100000000000000011000 I
b11000000001100000000000000011000 0"
b11000000001100000000000000011000 9
b11000000001100000000000000011000 M
b11000000001100000000000000011000 ~
b11000000001100000000000000010000 B
b11000000001100000000000000010000 Q
b11000000001100000000000000010000 ("
#360
00
#370
b10001000100010001000100000000110 *
b10001000100010001000100000000110 J
b10001000100010001000100000000110 k
b11000000001100000000000000100100 )
b11000000001100000000000000100100 L
b11000000001100000000000000100100 m
b10001000100010001000100000000111 ]
b10001000100010001000100000000111 $"
b11000000001100000000000000011000 [
b11000000001100000000000000011000 &"
b11 %"
b10001000100010001000100000000110 \
b10001000100010001000100000000110 #"
b10 ""
b0 '"
b11000000001100000000000000010000 X
b11000000001100000000000000010000 ."
b100 ,
b100 e
b100 )"
b100 *"
b0 /"
b11000000001100000000000000011000 a
b11000000001100000000000000011000 6"
b100 /
b100 h
b100 1"
b100 2"
b0 7"
b11000000001100000000000000100000 U
b11000000001100000000000000100000 >"
b100 +
b100 d
b100 9"
b100 :"
b0 ?"
b10001000100010001000100000100110 `
b10001000100010001000100000100110 D"
b11000000001100000000000000101000 ^
b11000000001100000000000000101000 F"
b1 E"
b11000000001100000000000000100100 _
b11000000001100000000000000100100 C"
b11 B"
b11 G"
b11 o
b10 p
b10 r
b110 s
10
#375
0;
0>
0:
0<
b10000000001100000000000000011000 B
b10000000001100000000000000011000 Q
b10000000001100000000000000011000 ("
#380
00
#390
b10001000100010001000100000000111 *
b10001000100010001000100000000111 J
b10001000100010001000100000000111 k
b1 )
b1 L
b1 m
b11000000001100000000000000011000 ]
b11000000001100000000000000011000 $"
b1 -
b1 f
b1 !"
b1 ""
b0 %"
b10001000100010001000100000000111 \
b10001000100010001000100000000111 #"
0u
b100 o
b11 p
b11 r
b1 s
b0 }
10
#395
b10000000001100000000000000011111 B
b10000000001100000000000000011111 Q
b10000000001100000000000000011111 ("
#400
00
#410
b11000000001100000000000000011000 *
b11000000001100000000000000011000 J
b11000000001100000000000000011000 k
b1000000001100000000000000011101 (
b1000000001100000000000000011101 N
b1000000001100000000000000011101 i
1%
b0 ]
b0 $"
b0 [
b0 &"
b0 -
b0 f
b0 !"
b0 ""
b11000000001100000000000000011000 \
b11000000001100000000000000011000 #"
b10001000100010001000100000011110 W
b10001000100010001000100000011110 <"
b11 +
b11 d
b11 9"
b11 :"
b10 ="
b1000000001100000000000000011101 V
b1000000001100000000000000011101 ;"
1x
b100 y
b100 p
b110 q
b100 r
b110 s
10
#415
b10000000001100000000000011111111 B
b10000000001100000000000011111111 Q
b10000000001100000000000011111111 ("
#420
00
#430
b10001000100010001000100000011110 (
b10001000100010001000100000011110 N
b10001000100010001000100000011110 i
b1 *
b1 J
b1 k
0'
b10001000100010001000100000011111 W
b10001000100010001000100000011111 <"
b10 +
b10 d
b10 9"
b10 :"
b11 ="
b10001000100010001000100000011110 V
b10001000100010001000100000011110 ;"
b0 ]
b0 $"
b0 [
b0 &"
0v
b101 p
b10 q
b0 {
b101 r
b0 s
10
#435
b0 6
b0 I
b0 0"
#440
00
#450
b10001000100010001000100000011111 (
b10001000100010001000100000011111 N
b10001000100010001000100000011111 i
b0 ]
b0 $"
b0 [
b0 &"
b11000000001100000000000000100000 W
b11000000001100000000000000100000 <"
b1 +
b1 d
b1 9"
b1 :"
b0 ="
b10001000100010001000100000011111 V
b10001000100010001000100000011111 ;"
b1 p
b11 q
b1 r
b1 s
10
#455
b0 C
b0 S
b0 8"
#460
00
#470
b11000000001100000000000000100000 (
b11000000001100000000000000100000 N
b11000000001100000000000000100000 i
b0 W
b0 <"
b0 U
b0 >"
b0 +
b0 d
b0 9"
b0 :"
b11000000001100000000000000100000 V
b11000000001100000000000000100000 ;"
b0 ]
b0 $"
b0 [
b0 &"
b110 o
b10 p
b100 q
b10 r
b10 s
10
#475
b0 8
b0 K
b0 @"
#480
00
#490
b1 (
b1 N
b1 i
0%
b1000000000000000000000000001101 )
b1000000000000000000000000001101 L
b1000000000000000000000000001101 m
b0 ]
b0 $"
b0 [
b0 &"
b10001000100010001000100000001110 Z
b10001000100010001000100000001110 ,"
b11 ,
b11 e
b11 )"
b11 *"
b10 -"
b1000000000000000000000000001101 Y
b1000000000000000000000000001101 +"
b0 W
b0 <"
b0 U
b0 >"
0x
1w
b101 o
b0 y
b11 p
b101 q
b11 r
b10 }
10
#500
00
#510
b10001000100010001000100000001110 )
b10001000100010001000100000001110 L
b10001000100010001000100000001110 m
b0 W
b0 <"
b0 U
b0 >"
b10001000100010001000100000001111 Z
b10001000100010001000100000001111 ,"
b10000000001100000000000011111111 X
b10000000001100000000000011111111 ."
b11 -"
b10001000100010001000100000001110 Y
b10001000100010001000100000001110 +"
b11 *"
b1 /"
b0 ]
b0 $"
b0 [
b0 &"
b1 o
b100 p
b1 q
b100 r
10
#520
00
#530
b10001000100010001000100000001111 )
b10001000100010001000100000001111 L
b10001000100010001000100000001111 m
b0 ]
b0 $"
b0 [
b0 &"
b11000000001100000000000000010000 Z
b11000000001100000000000000010000 ,"
b0 -"
b10001000100010001000100000001111 Y
b10001000100010001000100000001111 +"
b11 *"
b10 /"
b0 W
b0 <"
b0 U
b0 >"
b10 o
b101 p
b10 q
b101 r
10
#540
00
#550
b11000000001100000000000000010000 )
b11000000001100000000000000010000 L
b11000000001100000000000000010000 m
b0 W
b0 <"
b0 U
b0 >"
b10000000001100000000000011111111 Z
b10000000001100000000000011111111 ,"
b1 -"
b11000000001100000000000000010000 Y
b11000000001100000000000000010000 +"
b11 *"
b11 /"
b0 ]
b0 $"
b0 [
b0 &"
b110 o
b1 p
b110 q
b1 r
b110 s
10
#560
00
#570
b1 )
b1 L
b1 m
b0 ]
b0 $"
b0 [
b0 &"
b100 ,
b100 e
b100 )"
b100 *"
b0 /"
b0 W
b0 <"
b0 U
b0 >"
0w
b0 o
b10 p
b0 q
b10 r
b11 s
b0 }
10
#580
00
